{
  "photos": {
    "page": 1,
    "pages": 5731,
    "perpage": 100,
    "total": "573027",
    "photo": [
      {
        "id": "33300029368",
        "owner": "46663932@N07",
        "secret": "1086756dd6",
        "server": "7808",
        "farm": 8,
        "title": "Leon Bollee 4HP Tandem two-seater from 1898",
        "ispublic": 1,
        "isfriend": 0,
        "isfamily": 0
      },
      {
        "id": "40210442283",
        "owner": "50734047@N03",
        "secret": "358946d860",
        "server": "7896",
        "farm": 8,
        "title": "",
        "ispublic": 1,
        "isfriend": 0,
        "isfamily": 0
      },
      {
        "id": "46451791264",
        "owner": "96636569@N00",
        "secret": "599abaebcc",
        "server": "7910",
        "farm": 8,
        "title": "2018-12-21 1274 Taipei Motor Show - Jaguar group",
        "ispublic": 1,
        "isfriend": 0,
        "isfamily": 0
      },
      {
        "id": "40210412933",
        "owner": "96636569@N00",
        "secret": "ee0d592d67",
        "server": "7847",
        "farm": 8,
        "title": "2018-12-21 1264 Taipei Motor Show - Jaguar group",
        "ispublic": 1,
        "isfriend": 0,
        "isfamily": 0
      },
      {
        "id": "40210412803",
        "owner": "96636569@N00",
        "secret": "740b73a7e9",
        "server": "7812",
        "farm": 8,
        "title": "2018-12-21 1290 Taipei Motor Show - Jaguar group",
        "ispublic": 1,
        "isfriend": 0,
        "isfamily": 0
      },
      {
        "id": "46451791094",
        "owner": "96636569@N00",
        "secret": "7aecb012ce",
        "server": "7831",
        "farm": 8,
        "title": "2018-12-21 1298 Taipei Motor Show - Jaguar group",
        "ispublic": 1,
        "isfriend": 0,
        "isfamily": 0
      },
      {
        "id": "40210412743",
        "owner": "96636569@N00",
        "secret": "c49faee8e7",
        "server": "7801",
        "farm": 8,
        "title": "2018-12-21 1303 Taipei Motor Show - Jaguar group",
        "ispublic": 1,
        "isfriend": 0,
        "isfamily": 0
      },
      {
        "id": "46451790904",
        "owner": "96636569@N00",
        "secret": "48991082b5",
        "server": "7826",
        "farm": 8,
        "title": "2018-12-21 1326 Taipei Motor Show - Jaguar group",
        "ispublic": 1,
        "isfriend": 0,
        "isfamily": 0
      },
      {
        "id": "46451790734",
        "owner": "96636569@N00",
        "secret": "f2a2f86a77",
        "server": "7924",
        "farm": 8,
        "title": "2018-12-21 1354 Taipei Motor Show - Jaguar group",
        "ispublic": 1,
        "isfriend": 0,
        "isfamily": 0
      },
      {
        "id": "46451790794",
        "owner": "96636569@N00",
        "secret": "a63d80887b",
        "server": "7800",
        "farm": 8,
        "title": "2018-12-21 1343 Taipei Motor Show - Jaguar group",
        "ispublic": 1,
        "isfriend": 0,
        "isfamily": 0
      },
      {
        "id": "40210412563",
        "owner": "96636569@N00",
        "secret": "5a1c68a672",
        "server": "7896",
        "farm": 8,
        "title": "2018-12-21 1330 Taipei Motor Show - Jaguar group",
        "ispublic": 1,
        "isfriend": 0,
        "isfamily": 0
      },
      {
        "id": "47123274842",
        "owner": "96636569@N00",
        "secret": "26289bd846",
        "server": "7894",
        "farm": 8,
        "title": "2018-12-21 1338 Taipei Motor Show - Jaguar group",
        "ispublic": 1,
        "isfriend": 0,
        "isfamily": 0
      },
      {
        "id": "47123274742",
        "owner": "96636569@N00",
        "secret": "6eabb53e10",
        "server": "7874",
        "farm": 8,
        "title": "2018-12-21 1382 Taipei Motor Show - Jaguar group",
        "ispublic": 1,
        "isfriend": 0,
        "isfamily": 0
      },
      {
        "id": "40210412393",
        "owner": "96636569@N00",
        "secret": "7cea0e9027",
        "server": "7918",
        "farm": 8,
        "title": "2018-12-21 1280 Taipei Motor Show - Jaguar group",
        "ispublic": 1,
        "isfriend": 0,
        "isfamily": 0
      },
      {
        "id": "32233419467",
        "owner": "124854277@N02",
        "secret": "d26d283d1e",
        "server": "7849",
        "farm": 8,
        "title": "#freestyle #abstractart #digitalart #modernart #design #contemporaryart #COLOR #accessories #unicit\u00e0 #creativit\u00e0 #raffreefly_vendita_opere #design #interiodesign #visualart #visualdesign #visualeffects #visualartist #wallpaper #cartadaparatiartistica #car",
        "ispublic": 1,
        "isfriend": 0,
        "isfamily": 0
      },
      {
        "id": "40210385703",
        "owner": "149997312@N07",
        "secret": "20e0aaa003",
        "server": "7904",
        "farm": 8,
        "title": "Car Accidents Leave Children Parent-less",
        "ispublic": 1,
        "isfriend": 0,
        "isfamily": 0
      },
      {
        "id": "32233399287",
        "owner": "88030682@N08",
        "secret": "861c52b2f6",
        "server": "7834",
        "farm": 8,
        "title": "Seoul-ro7017B",
        "ispublic": 1,
        "isfriend": 0,
        "isfamily": 0
      },
      {
        "id": "46260995075",
        "owner": "156033787@N03",
        "secret": "6ba5b5ff4c",
        "server": "7838",
        "farm": 8,
        "title": "car check1",
        "ispublic": 1,
        "isfriend": 0,
        "isfamily": 0
      },
      {
        "id": "33299887208",
        "owner": "137075383@N05",
        "secret": "f7d11ce83b",
        "server": "7822",
        "farm": 8,
        "title": "Cromatismo cubano",
        "ispublic": 1,
        "isfriend": 0,
        "isfamily": 0
      },
      {
        "id": "46260932025",
        "owner": "168563757@N08",
        "secret": "cdf4dd0421",
        "server": "7853",
        "farm": 8,
        "title": "Find Autos For Sale | Cheap Used Cars For Sale Near Me",
        "ispublic": 1,
        "isfriend": 0,
        "isfamily": 0
      },
      {
        "id": "47123146012",
        "owner": "137075383@N05",
        "secret": "b4f71b4312",
        "server": "7893",
        "farm": 8,
        "title": "En el Paseo de Mart\u00ed",
        "ispublic": 1,
        "isfriend": 0,
        "isfamily": 0
      },
      {
        "id": "47175074481",
        "owner": "143615424@N02",
        "secret": "2561b1ddee",
        "server": "7829",
        "farm": 8,
        "title": "Stgo Cityscape",
        "ispublic": 1,
        "isfriend": 0,
        "isfamily": 0
      },
      {
        "id": "40185376343",
        "owner": "69129761@N06",
        "secret": "a442737b73",
        "server": "7878",
        "farm": 8,
        "title": "Intra-Muros au Coucher   . . .",
        "ispublic": 1,
        "isfriend": 0,
        "isfamily": 0
      },
      {
        "id": "32233321897",
        "owner": "145974237@N04",
        "secret": "15172a2065",
        "server": "7911",
        "farm": 8,
        "title": "Mercedes Benz 190D",
        "ispublic": 1,
        "isfriend": 0,
        "isfamily": 0
      },
      {
        "id": "32233279787",
        "owner": "156560734@N06",
        "secret": "7875de2981",
        "server": "7824",
        "farm": 8,
        "title": "Best Car Servicing in Granville",
        "ispublic": 1,
        "isfriend": 0,
        "isfamily": 0
      },
      {
        "id": "40210207413",
        "owner": "23001840@N02",
        "secret": "13ff0f1e3a",
        "server": "7900",
        "farm": 8,
        "title": "GEDC1465",
        "ispublic": 1,
        "isfriend": 0,
        "isfamily": 0
      },
      {
        "id": "47175007521",
        "owner": "13476480@N07",
        "secret": "7bda635d4b",
        "server": "7800",
        "farm": 8,
        "title": "Korean War in pictures (6)",
        "ispublic": 1,
        "isfriend": 0,
        "isfamily": 0
      },
      {
        "id": "40210202243",
        "owner": "23001840@N02",
        "secret": "bf3375e9a8",
        "server": "7825",
        "farm": 8,
        "title": "GEDC1464",
        "ispublic": 1,
        "isfriend": 0,
        "isfamily": 0
      },
      {
        "id": "32233236837",
        "owner": "22110327@N08",
        "secret": "80f5c69725",
        "server": "7906",
        "farm": 8,
        "title": "Birmingham New Street",
        "ispublic": 1,
        "isfriend": 0,
        "isfamily": 0
      },
      {
        "id": "33299761748",
        "owner": "48597791@N04",
        "secret": "e3490936bc",
        "server": "7857",
        "farm": 8,
        "title": "Santo Amaro",
        "ispublic": 1,
        "isfriend": 0,
        "isfamily": 0
      },
      {
        "id": "32233263557",
        "owner": "23001840@N02",
        "secret": "fe31fd7b4d",
        "server": "7864",
        "farm": 8,
        "title": "GEDC1461",
        "ispublic": 1,
        "isfriend": 0,
        "isfamily": 0
      },
      {
        "id": "47123067012",
        "owner": "23001840@N02",
        "secret": "38beb6a7af",
        "server": "7837",
        "farm": 8,
        "title": "GEDC1460",
        "ispublic": 1,
        "isfriend": 0,
        "isfamily": 0
      },
      {
        "id": "47123062682",
        "owner": "23001840@N02",
        "secret": "04c8717a5d",
        "server": "7918",
        "farm": 8,
        "title": "GEDC1456",
        "ispublic": 1,
        "isfriend": 0,
        "isfamily": 0
      },
      {
        "id": "40210192753",
        "owner": "23001840@N02",
        "secret": "c3bdafef7b",
        "server": "7885",
        "farm": 8,
        "title": "GEDC1452",
        "ispublic": 1,
        "isfriend": 0,
        "isfamily": 0
      },
      {
        "id": "46260797135",
        "owner": "46663932@N07",
        "secret": "d23e9cbae9",
        "server": "7843",
        "farm": 8,
        "title": "Panhard et Levassor 4HP Two-seat phaeton from 1897",
        "ispublic": 1,
        "isfriend": 0,
        "isfamily": 0
      },
      {
        "id": "47174970021",
        "owner": "43714949@N03",
        "secret": "016fe82695",
        "server": "7870",
        "farm": 8,
        "title": "1932_indy_500__1301-750x563 - Edited",
        "ispublic": 1,
        "isfriend": 0,
        "isfamily": 0
      },
      {
        "id": "47174957121",
        "owner": "149091104@N05",
        "secret": "8be60451f1",
        "server": "7863",
        "farm": 8,
        "title": "Car Service to O\u2019Hare Airport",
        "ispublic": 1,
        "isfriend": 0,
        "isfamily": 0
      },
      {
        "id": "47174956941",
        "owner": "149091104@N05",
        "secret": "86b331ca36",
        "server": "7848",
        "farm": 8,
        "title": "Car Service to O'hare",
        "ispublic": 1,
        "isfriend": 0,
        "isfamily": 0
      },
      {
        "id": "47174956801",
        "owner": "149091104@N05",
        "secret": "ae3582e430",
        "server": "7868",
        "farm": 8,
        "title": "Chicago O'Hare Car Service",
        "ispublic": 1,
        "isfriend": 0,
        "isfamily": 0
      },
      {
        "id": "47174956061",
        "owner": "149091104@N05",
        "secret": "225caf0dc8",
        "server": "7811",
        "farm": 8,
        "title": "O\u2019Hare Airport Car Service Near Me",
        "ispublic": 1,
        "isfriend": 0,
        "isfamily": 0
      },
      {
        "id": "47174955541",
        "owner": "149091104@N05",
        "secret": "28749e64f7",
        "server": "7808",
        "farm": 8,
        "title": "O\u2019Hare Airport Car Service",
        "ispublic": 1,
        "isfriend": 0,
        "isfamily": 0
      },
      {
        "id": "47174955031",
        "owner": "39415781@N06",
        "secret": "abb990b898",
        "server": "7841",
        "farm": 8,
        "title": "Bradford Street to the Bullring",
        "ispublic": 1,
        "isfriend": 0,
        "isfamily": 0
      },
      {
        "id": "40210145253",
        "owner": "149091104@N05",
        "secret": "f1ab068a9b",
        "server": "7841",
        "farm": 8,
        "title": "O\u2019Hare Car Service",
        "ispublic": 1,
        "isfriend": 0,
        "isfamily": 0
      },
      {
        "id": "46451561374",
        "owner": "23001840@N02",
        "secret": "aa73512e61",
        "server": "7892",
        "farm": 8,
        "title": "IMG_4787",
        "ispublic": 1,
        "isfriend": 0,
        "isfamily": 0
      },
      {
        "id": "33299709748",
        "owner": "150208945@N05",
        "secret": "e14d651bf8",
        "server": "7901",
        "farm": 8,
        "title": "Car,Cab Hire,Rental Service Delhi to Mussoorie",
        "ispublic": 1,
        "isfriend": 0,
        "isfamily": 0
      },
      {
        "id": "47174920921",
        "owner": "51520471@N05",
        "secret": "3b99185781",
        "server": "7882",
        "farm": 8,
        "title": "MG BGT",
        "ispublic": 1,
        "isfriend": 0,
        "isfamily": 0
      },
      {
        "id": "46451509674",
        "owner": "146094847@N04",
        "secret": "2155d48c63",
        "server": "7886",
        "farm": 8,
        "title": "Astuces tricot",
        "ispublic": 1,
        "isfriend": 0,
        "isfamily": 0
      },
      {
        "id": "32232870397",
        "owner": "162710999@N02",
        "secret": "b14fc98e62",
        "server": "7800",
        "farm": 8,
        "title": "Maisto - Lexus SC430",
        "ispublic": 1,
        "isfriend": 0,
        "isfamily": 0
      },
      {
        "id": "46260440495",
        "owner": "162710999@N02",
        "secret": "1643a0522b",
        "server": "7811",
        "farm": 8,
        "title": "Maisto - Lexus SC430",
        "ispublic": 1,
        "isfriend": 0,
        "isfamily": 0
      },
      {
        "id": "46451231074",
        "owner": "162710999@N02",
        "secret": "737c133a05",
        "server": "7805",
        "farm": 8,
        "title": "Maisto - '03 GM Hy-Wire Concept",
        "ispublic": 1,
        "isfriend": 0,
        "isfamily": 0
      },
      {
        "id": "32232868247",
        "owner": "162710999@N02",
        "secret": "6f1787a725",
        "server": "7896",
        "farm": 8,
        "title": "Maisto - '03 GM Hy-Wire Concept",
        "ispublic": 1,
        "isfriend": 0,
        "isfamily": 0
      },
      {
        "id": "46260669935",
        "owner": "168392617@N06",
        "secret": "ebfca348e0",
        "server": "7903",
        "farm": 8,
        "title": "Melbourne car rampage: James Gargasoulas jailed for six murders",
        "ispublic": 1,
        "isfriend": 0,
        "isfamily": 0
      },
      {
        "id": "47122910752",
        "owner": "167892418@N03",
        "secret": "b7bd4fba99",
        "server": "7877",
        "farm": 8,
        "title": "vehicle check",
        "ispublic": 1,
        "isfriend": 0,
        "isfamily": 0
      },
      {
        "id": "46451444904",
        "owner": "127547040@N07",
        "secret": "d09d285a78",
        "server": "7812",
        "farm": 8,
        "title": "Camera Shy.",
        "ispublic": 1,
        "isfriend": 0,
        "isfamily": 0
      },
      {
        "id": "40210020223",
        "owner": "127547040@N07",
        "secret": "0251fe29ea",
        "server": "7812",
        "farm": 8,
        "title": "Cold and wet.",
        "ispublic": 1,
        "isfriend": 0,
        "isfamily": 0
      },
      {
        "id": "32233062067",
        "owner": "159743068@N08",
        "secret": "90181524c3",
        "server": "7844",
        "farm": 8,
        "title": "Maruti Suzuki Alto 800",
        "ispublic": 1,
        "isfriend": 0,
        "isfamily": 0
      },
      {
        "id": "33299568618",
        "owner": "150019937@N08",
        "secret": "2ea998b0c2",
        "server": "7916",
        "farm": 8,
        "title": "Auros cars top",
        "ispublic": 1,
        "isfriend": 0,
        "isfamily": 0
      },
      {
        "id": "47174807901",
        "owner": "150019937@N08",
        "secret": "0df65e581a",
        "server": "7875",
        "farm": 8,
        "title": "Auros cars top",
        "ispublic": 1,
        "isfriend": 0,
        "isfamily": 0
      },
      {
        "id": "33299568628",
        "owner": "150019937@N08",
        "secret": "868287ce86",
        "server": "7835",
        "farm": 8,
        "title": "Auros cars top",
        "ispublic": 1,
        "isfriend": 0,
        "isfamily": 0
      },
      {
        "id": "33299568558",
        "owner": "150019937@N08",
        "secret": "211cc61792",
        "server": "7876",
        "farm": 8,
        "title": "Auros cars top",
        "ispublic": 1,
        "isfriend": 0,
        "isfamily": 0
      },
      {
        "id": "33299568588",
        "owner": "150019937@N08",
        "secret": "3cdb0dd7fa",
        "server": "7812",
        "farm": 8,
        "title": "Auros cars top",
        "ispublic": 1,
        "isfriend": 0,
        "isfamily": 0
      },
      {
        "id": "46451421154",
        "owner": "150019937@N08",
        "secret": "8516ef3678",
        "server": "7870",
        "farm": 8,
        "title": "Auros cars top",
        "ispublic": 1,
        "isfriend": 0,
        "isfamily": 0
      },
      {
        "id": "33299540218",
        "owner": "127699427@N02",
        "secret": "8ae0a81586",
        "server": "7865",
        "farm": 8,
        "title": "Heading For The Beach.",
        "ispublic": 1,
        "isfriend": 0,
        "isfamily": 0
      },
      {
        "id": "33299518658",
        "owner": "126433814@N04",
        "secret": "7e1491ae52",
        "server": "7859",
        "farm": 8,
        "title": "1974 Ford LTD P5",
        "ispublic": 1,
        "isfriend": 0,
        "isfamily": 0
      },
      {
        "id": "46260578065",
        "owner": "126433814@N04",
        "secret": "5e953a399a",
        "server": "7877",
        "farm": 8,
        "title": "1974 Ford LTD P5",
        "ispublic": 1,
        "isfriend": 0,
        "isfamily": 0
      },
      {
        "id": "46451364494",
        "owner": "156560734@N06",
        "secret": "b2329c5f64",
        "server": "7888",
        "farm": 8,
        "title": "Best Car Upholstery Cleaning in Chirnside Park",
        "ispublic": 1,
        "isfriend": 0,
        "isfamily": 0
      },
      {
        "id": "33299502538",
        "owner": "118579876@N08",
        "secret": "fc0153bb7b",
        "server": "7836",
        "farm": 8,
        "title": "Nissan Fairlady Z 432",
        "ispublic": 1,
        "isfriend": 0,
        "isfamily": 0
      },
      {
        "id": "33299505458",
        "owner": "155623451@N02",
        "secret": "363d7f34e4",
        "server": "7825",
        "farm": 8,
        "title": "WINDSCREEN",
        "ispublic": 1,
        "isfriend": 0,
        "isfamily": 0
      },
      {
        "id": "33299453688",
        "owner": "156560734@N06",
        "secret": "f7a0f48933",
        "server": "7915",
        "farm": 8,
        "title": "Best Car Servicing in Parramatta",
        "ispublic": 1,
        "isfriend": 0,
        "isfamily": 0
      },
      {
        "id": "47122748412",
        "owner": "155063793@N08",
        "secret": "25fd0f68dd",
        "server": "7831",
        "farm": 8,
        "title": "Akihabara - Tokyo",
        "ispublic": 1,
        "isfriend": 0,
        "isfamily": 0
      },
      {
        "id": "46451303884",
        "owner": "117756023@N05",
        "secret": "39299f8d4d",
        "server": "7811",
        "farm": 8,
        "title": "Sarcasmo.",
        "ispublic": 1,
        "isfriend": 0,
        "isfamily": 0
      },
      {
        "id": "47174626091",
        "owner": "30279041@N04",
        "secret": "2c75257d1b",
        "server": "7843",
        "farm": 8,
        "title": "MG Midget Ashley",
        "ispublic": 1,
        "isfriend": 0,
        "isfamily": 0
      },
      {
        "id": "46260435015",
        "owner": "30279041@N04",
        "secret": "0c4db6dd1c",
        "server": "7828",
        "farm": 8,
        "title": "Austin FX4 - London Cab",
        "ispublic": 1,
        "isfriend": 0,
        "isfamily": 0
      },
      {
        "id": "46451224794",
        "owner": "30279041@N04",
        "secret": "d04908a2b3",
        "server": "7907",
        "farm": 8,
        "title": "Bentley S2 Continental",
        "ispublic": 1,
        "isfriend": 0,
        "isfamily": 0
      },
      {
        "id": "46260434695",
        "owner": "30279041@N04",
        "secret": "b8bcd8318e",
        "server": "7880",
        "farm": 8,
        "title": "Jaguar D-Type Replica",
        "ispublic": 1,
        "isfriend": 0,
        "isfamily": 0
      },
      {
        "id": "32232860017",
        "owner": "30279041@N04",
        "secret": "001b50edc3",
        "server": "7840",
        "farm": 8,
        "title": "Bentley S2 Continental",
        "ispublic": 1,
        "isfriend": 0,
        "isfamily": 0
      },
      {
        "id": "40201730313",
        "owner": "83776910@N06",
        "secret": "a81d41e496",
        "server": "7884",
        "farm": 8,
        "title": "Alpha Trains 185 611-1 bij Leschede op 18-2-2019",
        "ispublic": 1,
        "isfriend": 0,
        "isfamily": 0
      },
      {
        "id": "46451231824",
        "owner": "24406544@N00",
        "secret": "0681b5e47c",
        "server": "7861",
        "farm": 8,
        "title": "Expedition GeForce - Holiday Park (Germany)",
        "ispublic": 1,
        "isfriend": 0,
        "isfamily": 0
      },
      {
        "id": "32232855327",
        "owner": "8725928@N02",
        "secret": "07acc25e6b",
        "server": "7809",
        "farm": 8,
        "title": "die Woche 1901 ill Elektrische Luxuswagen",
        "ispublic": 1,
        "isfriend": 0,
        "isfamily": 0
      },
      {
        "id": "46260389115",
        "owner": "126433814@N04",
        "secret": "c99f6e96e8",
        "server": "7807",
        "farm": 8,
        "title": "1974 Ford LTD P5",
        "ispublic": 1,
        "isfriend": 0,
        "isfamily": 0
      },
      {
        "id": "47122620342",
        "owner": "126433814@N04",
        "secret": "f68bb1741e",
        "server": "7853",
        "farm": 8,
        "title": "1974 Ford LTD P5",
        "ispublic": 1,
        "isfriend": 0,
        "isfamily": 0
      },
      {
        "id": "47174580771",
        "owner": "130058088@N08",
        "secret": "a38f07aff2",
        "server": "7917",
        "farm": 8,
        "title": "DITE",
        "ispublic": 1,
        "isfriend": 0,
        "isfamily": 0
      },
      {
        "id": "47122582862",
        "owner": "145295966@N05",
        "secret": "8033d60720",
        "server": "7869",
        "farm": 8,
        "title": "National Motor Museum and Palace House,  Beaulieu, Brockenhurst SO42 7ZN. Hampshire, England. ( 20 )",
        "ispublic": 1,
        "isfriend": 0,
        "isfamily": 0
      },
      {
        "id": "46260317735",
        "owner": "156301621@N02",
        "secret": "4e196d291f",
        "server": "7827",
        "farm": 8,
        "title": "JIm's car - a Ford",
        "ispublic": 1,
        "isfriend": 0,
        "isfamily": 0
      },
      {
        "id": "40209641833",
        "owner": "47875208@N07",
        "secret": "990fde457e",
        "server": "7893",
        "farm": 8,
        "title": "Blue Off-Road Vehicle",
        "ispublic": 1,
        "isfriend": 0,
        "isfamily": 0
      },
      {
        "id": "47122500912",
        "owner": "140711157@N05",
        "secret": "c953d1bf51",
        "server": "7825",
        "farm": 8,
        "title": "24hrs Cab Services",
        "ispublic": 1,
        "isfriend": 0,
        "isfamily": 0
      },
      {
        "id": "32232679657",
        "owner": "116071498@N08",
        "secret": "1651c72698",
        "server": "7888",
        "farm": 8,
        "title": "Two Bolton trams come to grief in 1945.",
        "ispublic": 1,
        "isfriend": 0,
        "isfamily": 0
      },
      {
        "id": "32232674897",
        "owner": "37371740@N04",
        "secret": "910f374c8f",
        "server": "7811",
        "farm": 8,
        "title": "Bonnie",
        "ispublic": 1,
        "isfriend": 0,
        "isfamily": 0
      },
      {
        "id": "40209618513",
        "owner": "79157069@N03",
        "secret": "b79e25d33e",
        "server": "7825",
        "farm": 8,
        "title": "1974 Cadillac Coupe de Ville (photo 3)",
        "ispublic": 1,
        "isfriend": 0,
        "isfamily": 0
      },
      {
        "id": "47123252502",
        "owner": "161854710@N04",
        "secret": "7e0800e4aa",
        "server": "7850",
        "farm": 8,
        "title": "",
        "ispublic": 1,
        "isfriend": 0,
        "isfamily": 0
      },
      {
        "id": "47123117582",
        "owner": "91324182@N00",
        "secret": "9ce7365fd3",
        "server": "7916",
        "farm": 8,
        "title": "peace",
        "ispublic": 1,
        "isfriend": 0,
        "isfamily": 0
      },
      {
        "id": "46451235404",
        "owner": "128585969@N03",
        "secret": "9a6d90843b",
        "server": "7927",
        "farm": 8,
        "title": "Race staff",
        "ispublic": 1,
        "isfriend": 0,
        "isfamily": 0
      },
      {
        "id": "46451499164",
        "owner": "75446088@N00",
        "secret": "1f96b4b543",
        "server": "7905",
        "farm": 8,
        "title": "On the Sea Wall",
        "ispublic": 1,
        "isfriend": 0,
        "isfamily": 0
      },
      {
        "id": "32233116687",
        "owner": "158120806@N03",
        "secret": "f68ee890aa",
        "server": "7878",
        "farm": 8,
        "title": "blvckmoon",
        "ispublic": 1,
        "isfriend": 0,
        "isfamily": 0
      },
      {
        "id": "46260632595",
        "owner": "96497070@N04",
        "secret": "c8156666e4",
        "server": "7914",
        "farm": 8,
        "title": "",
        "ispublic": 1,
        "isfriend": 0,
        "isfamily": 0
      },
      {
        "id": "47174807921",
        "owner": "150019937@N08",
        "secret": "7150a7e5de",
        "server": "7859",
        "farm": 8,
        "title": "Auros cars top",
        "ispublic": 1,
        "isfriend": 0,
        "isfamily": 0
      },
      {
        "id": "47122732252",
        "owner": "47075334@N07",
        "secret": "c1799656c2",
        "server": "7846",
        "farm": 8,
        "title": "London Transport Tram Route 46",
        "ispublic": 1,
        "isfriend": 0,
        "isfamily": 0
      },
      {
        "id": "46451181444",
        "owner": "154395320@N05",
        "secret": "f5cfc297cf",
        "server": "7817",
        "farm": 8,
        "title": "Found Negatives. purchased from That Antique Guy Brisbane.",
        "ispublic": 1,
        "isfriend": 0,
        "isfamily": 0
      },
      {
        "id": "47122517382",
        "owner": "134901588@N02",
        "secret": "14d0885c55",
        "server": "7822",
        "farm": 8,
        "title": "Rallye de Su\u00e8de",
        "ispublic": 1,
        "isfriend": 0,
        "isfamily": 0
      }
    ]
  },
  "stat": "ok"
}